0.014962687720430932, -0.03777932697095698
0.02528924314281692, -0.2917775618065117
0.03809870497371142, -0.4538704836344529
0.10439196266368125, -0.7994580876469397
0.22268888804942466, -0.9988186448070167
0.3434412464670955, -1.0630307942209751
0.4586096410946767, -0.3380839380337992
0.5665250643048722, -0.1969600708813115
0.6795677064194978, -0.12607875930231338
0.7862605643718383, -0.06063717628635512
0.8980085236150842, 0.04807497484468959
