0.00870429999546482, 0.4778067885117494
0.011703995490738472, 0.268929503916449
0.030988215019209675, -0.0026109660574413773
0.03281200396504025, -0.23759791122715423
0.05070003692929659, -0.44647519582245443
0.07967657710772336, -0.6240208877284597
0.1046718799603496, -0.6971279373368147
0.1345651737296646, -0.7441253263707572
0.156975425820705, -0.7754569190600523
0.20553097201795928, -0.8433420365535249
0.3073456906102404, -0.8746736292428199
0.40277228877414173, -0.3315926892950394
0.500774219463683, -0.32637075718015685
0.6072536913099533, -0.23759791122715423
0.7087962992957517, -0.1592689295039167
0.8003874336730397, -0.07049608355091408
0.9067243713921047, 0.07571801566579617
1.0006673188682789, 0.21671018276762366
