-0.0026766833258187114, 1.114167052981184
0.007579173308101178, -0.0804783102920541
0.021623029002165492, -0.3244152891643546
0.0452305503870554, -0.4798915355843305
0.11461475446272651, -0.8580310025338005
0.22991852468073487, -1.0172730216992343
0.3376462967784545, -1.0779318096665425
0.46081183201986403, -0.4526357234030396
0.5716227114833843, -0.27428542398282896
0.6925179874389571, -0.22045328981209256
0.7850683617936002, -0.07355640086111115
0.9033663341186632, 0.04257291818811071
