0.009328701792711051, 0.7039645395025111
0.012129217443211777, 0.5585536384477141
0.02496332658076726, 0.30940300118751995
0.03406659003880081, 0.0861682468518008
0.05541972807691576, -0.14726521073721544
0.07663315785128691, -0.3235579884550177
0.10611160150122881, -0.3802414412812525
0.13072565742263656, -0.4473903131370227
0.15895625226232135, -0.4937036025680923
0.20663169726489325, -0.49296060862000024
0.30557372468581523, -0.4602498237770769
0.4116472239332957, -0.34431101599659675
0.5068076026696979, -0.2649059191851202
0.6031904287138585, -0.1854817712467698
0.7020435508760343, -0.11640873557670983
0.8020683173409707, -0.026538219735697366
0.9020168792984106, 0.09449993967143144
1.0055946809253768, 0.23117907424224127
