-1.2839478877772974, 0.0012468827930174342
0.4551463583544395, 0.26558603491271826
1.9243546934489064, 0.40523690773067333
2.321250329196565, 0.35286783042394015
1.0305266819912404, 0.10099750623441395
-0.5627001596400127, -0.14837905236907734
-1.9902655356393888, -0.2805486284289276
-2.4913075850139967, -0.243142144638404
